<?xml version="1.0" encoding="UTF-8" standalone="no"?>
<svg
   xmlns:dc="http://purl.org/dc/elements/1.1/"
   xmlns:cc="http://creativecommons.org/ns#"
   xmlns:rdf="http://www.w3.org/1999/02/22-rdf-syntax-ns#"
   xmlns:svg="http://www.w3.org/2000/svg"
   xmlns="http://www.w3.org/2000/svg"
   xmlns:sodipodi="http://sodipodi.sourceforge.net/DTD/sodipodi-0.dtd"
   xmlns:inkscape="http://www.inkscape.org/namespaces/inkscape"
   width="145.85071mm"
   height="67.228745mm"
   viewBox="0 0 145.85071 67.228745"
   version="1.1"
   id="svg8"
   inkscape:version="1.0.1 (3bc2e813f5, 2020-09-07)"
   sodipodi:docname="codestructure.svg"
   inkscape:export-filename="/home/jvn/projects/rat-mlfmm/figs/codestructure.png"
   inkscape:export-xdpi="120"
   inkscape:export-ydpi="120">
  <defs
     id="defs2" />
  <sodipodi:namedview
     id="base"
     pagecolor="#ffffff"
     bordercolor="#666666"
     borderopacity="1.0"
     inkscape:pageopacity="0.0"
     inkscape:pageshadow="2"
     inkscape:zoom="1.979899"
     inkscape:cx="440.01668"
     inkscape:cy="170.08278"
     inkscape:document-units="mm"
     inkscape:current-layer="layer1"
     inkscape:document-rotation="0"
     showgrid="false"
     inkscape:window-width="2560"
     inkscape:window-height="1544"
     inkscape:window-x="0"
     inkscape:window-y="28"
     inkscape:window-maximized="1"
     fit-margin-top="5"
     fit-margin-right="5"
     fit-margin-bottom="5"
     fit-margin-left="5" />
  <metadata
     id="metadata5">
    <rdf:RDF>
      <cc:Work
         rdf:about="">
        <dc:format>image/svg+xml</dc:format>
        <dc:type
           rdf:resource="http://purl.org/dc/dcmitype/StillImage" />
        <dc:title></dc:title>
      </cc:Work>
    </rdf:RDF>
  </metadata>
  <g
     inkscape:label="Layer 1"
     inkscape:groupmode="layer"
     id="layer1"
     transform="translate(-4.7374214,-24.23242)">
    <path
       style="fill:none;stroke:#000000;stroke-width:0.264584px;stroke-linecap:butt;stroke-linejoin:miter;stroke-opacity:1"
       d="m 75.859828,43.168254 -0.02441,7.810492"
       id="path1081" />
    <path
       style="fill:none;stroke:#000000;stroke-width:0.264584px;stroke-linecap:butt;stroke-linejoin:miter;stroke-opacity:1"
       d="m 127.92233,41.009558 -0.0244,32.156923"
       id="path1081-5" />
    <rect
       style="fill:#5b32a2;fill-opacity:1;stroke:none;stroke-width:0.365002;stroke-miterlimit:4;stroke-dasharray:none"
       id="rect833-3"
       width="31.518456"
       height="9.361311"
       x="13.571036"
       y="42.946022" />
    <text
       xml:space="preserve"
       style="font-style:normal;font-variant:normal;font-weight:normal;font-stretch:normal;font-size:3.52777777px;line-height:1.25;font-family:'Droid Serif';-inkscape-font-specification:'Droid Serif';text-align:center;text-anchor:middle;fill:#ffffff;fill-opacity:1;stroke:none;stroke-width:0.264584;"
       x="29.336956"
       y="48.869919"
       id="text837-6"
       transform="scale(0.99967491,1.0003252)"><tspan
         sodipodi:role="line"
         id="tspan835-7"
         x="29.336956"
         y="48.869919"
         style="font-style:normal;font-variant:normal;font-weight:normal;font-stretch:normal;font-family:'Droid Serif';-inkscape-font-specification:'Droid Serif';text-align:center;text-anchor:middle;fill:#ffffff;fill-opacity:1;stroke-width:0.264584;font-size:3.52777777px;">sources</tspan></text>
    <rect
       style="fill:#00d491;fill-opacity:1;stroke:none;stroke-width:0.365002;stroke-miterlimit:4;stroke-dasharray:none"
       id="rect833-6"
       width="31.518456"
       height="9.5277023"
       x="112.26765"
       y="36.153915" />
    <text
       xml:space="preserve"
       style="font-style:normal;font-variant:normal;font-weight:normal;font-stretch:normal;font-size:3.52778px;line-height:1.25;font-family:'Droid Serif';-inkscape-font-specification:'Droid Serif';text-align:center;text-anchor:middle;fill:#ffffff;fill-opacity:1;stroke:none;stroke-width:0.264584;"
       x="127.69674"
       y="42.109772"
       id="text837-2"
       transform="scale(0.99967491,1.0003252)"><tspan
         sodipodi:role="line"
         x="127.69674"
         y="42.109772"
         style="font-style:normal;font-variant:normal;font-weight:normal;font-stretch:normal;font-size:3.52778px;font-family:'Droid Serif';-inkscape-font-specification:'Droid Serif';text-align:center;text-anchor:middle;fill:#ffffff;fill-opacity:1;stroke-width:0.264584;"
         id="tspan902">node level I</tspan></text>
    <rect
       style="fill:#00d491;fill-opacity:1;stroke:none;stroke-width:0.365002;stroke-miterlimit:4;stroke-dasharray:none"
       id="rect833-6-1"
       width="31.518456"
       height="9.5277023"
       x="112.11303"
       y="47.390976" />
    <text
       xml:space="preserve"
       style="font-style:normal;font-variant:normal;font-weight:normal;font-stretch:normal;font-size:3.52778px;line-height:1.25;font-family:'Droid Serif';-inkscape-font-specification:'Droid Serif';text-align:center;text-anchor:middle;fill:#ffffff;fill-opacity:1;stroke:none;stroke-width:0.264584;"
       x="127.8297"
       y="53.405376"
       id="text837-2-2"
       transform="scale(0.99967491,1.0003252)"><tspan
         sodipodi:role="line"
         x="127.8297"
         y="53.405376"
         style="font-style:normal;font-variant:normal;font-weight:normal;font-stretch:normal;font-size:3.52778px;font-family:'Droid Serif';-inkscape-font-specification:'Droid Serif';text-align:center;text-anchor:middle;fill:#ffffff;fill-opacity:1;stroke-width:0.264584;"
         id="tspan902-0">node level II</tspan></text>
    <rect
       style="fill:#00d491;fill-opacity:1;stroke:none;stroke-width:0.365002;stroke-miterlimit:4;stroke-dasharray:none"
       id="rect833-6-1-9"
       width="31.518456"
       height="9.5277023"
       x="112.05757"
       y="58.586205" />
    <text
       xml:space="preserve"
       style="font-style:normal;font-variant:normal;font-weight:normal;font-stretch:normal;font-size:3.52778px;line-height:1.25;font-family:'Droid Serif';-inkscape-font-specification:'Droid Serif';text-align:center;text-anchor:middle;fill:#ffffff;fill-opacity:1;stroke:none;stroke-width:0.264584;"
       x="127.60886"
       y="64.600075"
       id="text837-2-2-3"
       transform="scale(0.99967491,1.0003252)"><tspan
         sodipodi:role="line"
         x="127.60886"
         y="64.600075"
         style="font-style:normal;font-variant:normal;font-weight:normal;font-stretch:normal;font-size:3.52778px;font-family:'Droid Serif';-inkscape-font-specification:'Droid Serif';text-align:center;text-anchor:middle;fill:#ffffff;fill-opacity:1;stroke-width:0.264584;"
         id="tspan902-0-0">node level III</tspan></text>
    <rect
       style="fill:#00d491;fill-opacity:1;stroke:none;stroke-width:0.365002;stroke-miterlimit:4;stroke-dasharray:none"
       id="rect833-6-1-9-6"
       width="31.518456"
       height="9.5277023"
       x="111.99334"
       y="69.690933" />
    <text
       xml:space="preserve"
       style="font-style:normal;font-variant:normal;font-weight:normal;font-stretch:normal;font-size:3.52778px;line-height:1.25;font-family:'Droid Serif';-inkscape-font-specification:'Droid Serif';text-align:center;text-anchor:middle;fill:#ffffff;fill-opacity:1;stroke:none;stroke-width:0.264584;"
       x="127.91527"
       y="75.966805"
       id="text837-2-2-3-2"
       transform="scale(0.99967491,1.0003252)"><tspan
         sodipodi:role="line"
         x="127.91527"
         y="75.966805"
         style="font-style:normal;font-variant:normal;font-weight:normal;font-stretch:normal;font-size:3.52778px;font-family:'Droid Serif';-inkscape-font-specification:'Droid Serif';text-align:center;text-anchor:middle;fill:#ffffff;fill-opacity:1;stroke-width:0.264584;"
         id="tspan902-0-0-1">node level IV</tspan></text>
    <path
       style="fill:none;stroke:#000000;stroke-width:0.264584px;stroke-linecap:butt;stroke-linejoin:miter;stroke-opacity:1"
       d="m 92.650618,52.635347 7.498452,-0.07026 0.094,-11.453782 11.92617,-0.116202"
       id="path980" />
    <path
       style="fill:none;stroke:#000000;stroke-width:0.264584px;stroke-linecap:butt;stroke-linejoin:miter;stroke-opacity:1"
       d="m 92.085662,55.756158 10.933198,-0.110508 -0.2687,-3.587523 9.16514,0.06661"
       id="path982"
       sodipodi:nodetypes="cccc" />
    <path
       style="fill:none;stroke:#000000;stroke-width:0.264584px;stroke-linecap:butt;stroke-linejoin:miter;stroke-opacity:1"
       d="m 92.145239,62.056546 8.209031,-0.05681 0.0345,12.685856 11.61495,0.0058"
       id="path984"
       sodipodi:nodetypes="cccc" />
    <path
       style="fill:none;stroke:#000000;stroke-width:0.264584px;stroke-linecap:butt;stroke-linejoin:miter;stroke-opacity:1"
       d="m 92.296272,58.904137 10.664798,-0.03061 -0.0458,4.652745 9.12262,0.0279"
       id="path986"
       sodipodi:nodetypes="cccc" />
    <rect
       style="fill:#0074d4;fill-opacity:1;stroke:none;stroke-width:0.365002;stroke-miterlimit:4;stroke-dasharray:none"
       id="rect833-6-1-8"
       width="31.518456"
       height="7.4891276"
       x="61.213524"
       y="36.51984" />
    <text
       xml:space="preserve"
       style="font-style:normal;font-variant:normal;font-weight:normal;font-stretch:normal;font-size:3.52778px;line-height:1.25;font-family:'Droid Serif';-inkscape-font-specification:'Droid Serif';text-align:center;text-anchor:middle;fill:#ffffff;fill-opacity:1;stroke:none;stroke-width:0.264584;"
       x="76.468689"
       y="41.365788"
       id="text837-7"
       transform="scale(0.99967491,1.0003252)"><tspan
         sodipodi:role="line"
         id="tspan835-92"
         x="76.468689"
         y="41.365788"
         style="font-style:normal;font-variant:normal;font-weight:normal;font-stretch:normal;font-size:3.52778px;font-family:'Droid Serif';-inkscape-font-specification:'Droid Serif';text-align:center;text-anchor:middle;fill:#ffffff;fill-opacity:1;stroke-width:0.264584;">settings</tspan></text>
    <path
       style="fill:none;stroke:#000000;stroke-width:0.264583px;stroke-linecap:butt;stroke-linejoin:miter;stroke-opacity:1"
       d="m 44.850899,47.839347 7.454416,-0.126512 0.03445,8.572823 9.351102,0.01293"
       id="path984-2"
       sodipodi:nodetypes="cccc" />
    <path
       style="fill:none;stroke:#000000;stroke-width:0.264584px;stroke-linecap:butt;stroke-linejoin:miter;stroke-opacity:1"
       d="m 44.521368,64.057356 7.946999,-0.05816 0.03673,-3.811236 9.969018,0.006"
       id="path984-2-3"
       sodipodi:nodetypes="cccc" />
    <rect
       style="fill:#00a0d4;fill-opacity:1;stroke:none;stroke-width:0.365;stroke-miterlimit:4;stroke-dasharray:none"
       id="rect833"
       width="31.518456"
       height="15.516129"
       x="61.126259"
       y="50.45438" />
    <text
       xml:space="preserve"
       style="font-style:normal;font-variant:normal;font-weight:normal;font-stretch:normal;font-size:3.52777777px;line-height:1.25;font-family:'Droid Serif';-inkscape-font-specification:'Droid Serif';text-align:center;text-anchor:middle;fill:#ffffff;fill-opacity:1;stroke:none;stroke-width:0.264584;"
       x="75.907928"
       y="59.682121"
       id="text837"
       transform="scale(0.99967491,1.0003252)"><tspan
         sodipodi:role="line"
         id="tspan835"
         x="75.907928"
         y="59.682121"
         style="font-style:normal;font-variant:normal;font-weight:normal;font-stretch:normal;font-family:'Droid Serif';-inkscape-font-specification:'Droid Serif';text-align:center;text-anchor:middle;fill:#ffffff;fill-opacity:1;stroke-width:0.264584;font-size:3.52777777px;">grid</tspan></text>
    <text
       xml:space="preserve"
       style="font-style:normal;font-variant:normal;font-weight:normal;font-stretch:normal;font-size:3.52778px;line-height:1.25;font-family:'Droid Serif';-inkscape-font-specification:'Droid Serif';text-align:end;text-anchor:end;fill:#000000;fill-opacity:1;stroke:none;stroke-width:0.264584;"
       x="143.6705"
       y="33.929428"
       id="text1100"
       transform="scale(0.99967491,1.0003252)"><tspan
         sodipodi:role="line"
         id="tspan1098"
         x="143.6705"
         y="33.929428"
         style="font-style:normal;font-variant:normal;font-weight:normal;font-stretch:normal;font-size:3.52778px;font-family:'Droid Serif';-inkscape-font-specification:'Droid Serif';text-align:end;text-anchor:end;stroke-width:0.264584;">Multipole side</tspan></text>
    <text
       xml:space="preserve"
       style="font-style:normal;font-variant:normal;font-weight:normal;font-stretch:normal;font-size:3.52778px;line-height:1.25;font-family:'Droid Serif';-inkscape-font-specification:'Droid Serif';fill:#000000;fill-opacity:1;stroke:none;stroke-width:0.264584;"
       x="11.562325"
       y="33.894276"
       id="text1100-9"
       transform="scale(0.99967491,1.0003252)"><tspan
         sodipodi:role="line"
         id="tspan1098-2"
         x="11.562325"
         y="33.894276"
         style="font-style:normal;font-variant:normal;font-weight:normal;font-stretch:normal;font-size:3.52778px;font-family:'Droid Serif';-inkscape-font-specification:'Droid Serif';stroke-width:0.264584;">S2T side</tspan></text>
    <rect
       style="fill:none;fill-opacity:1;stroke:#000000;stroke-width:0.165;stroke-miterlimit:4;stroke-dasharray:none;stroke-opacity:1"
       id="rect1120"
       width="135.4857"
       height="51.565231"
       x="9.9199219"
       y="29.414923" />
    <text
       xml:space="preserve"
       style="font-style:normal;font-variant:normal;font-weight:normal;font-stretch:normal;font-size:3.52778px;line-height:1.25;font-family:'Droid Serif';-inkscape-font-specification:'Droid Serif';fill:#000000;fill-opacity:1;stroke:none;stroke-width:0.264584;"
       x="11.858587"
       y="79.248993"
       id="text1124"
       transform="scale(0.99967491,1.0003252)"><tspan
         sodipodi:role="line"
         id="tspan1122"
         x="11.858587"
         y="79.248993"
         style="font-style:normal;font-variant:normal;font-weight:normal;font-stretch:normal;font-size:3.52778px;font-family:'Droid Serif';-inkscape-font-specification:'Droid Serif';stroke-width:0.264584;">MLFMM</tspan></text>
    <path
       style="fill:#000000;fill-opacity:1;stroke:none;stroke-width:0.264583px;stroke-linecap:butt;stroke-linejoin:miter;stroke-opacity:1"
       d="m 59.712655,59.261001 0.01125,1.635206 1.490568,-0.763518 z"
       id="path1134"
       sodipodi:nodetypes="cccc" />
    <path
       style="fill:#000000;fill-opacity:1;stroke:none;stroke-width:0.264583px;stroke-linecap:butt;stroke-linejoin:miter;stroke-opacity:1"
       d="m 59.57655,55.57718 0.01125,1.635206 1.490568,-0.763517 z"
       id="path1134-2"
       sodipodi:nodetypes="cccc" />
    <path
       style="fill:#000000;fill-opacity:1;stroke:none;stroke-width:0.264583px;stroke-linecap:butt;stroke-linejoin:miter;stroke-opacity:1"
       d="m 110.41707,73.953404 0.0113,1.635206 1.49057,-0.763517 z"
       id="path1134-2-9"
       sodipodi:nodetypes="cccc" />
    <path
       style="fill:#000000;fill-opacity:1;stroke:none;stroke-width:0.264583px;stroke-linecap:butt;stroke-linejoin:miter;stroke-opacity:1"
       d="m 110.52783,62.756869 0.0113,1.635206 1.49057,-0.763517 z"
       id="path1134-2-9-9"
       sodipodi:nodetypes="cccc" />
    <path
       style="fill:#000000;fill-opacity:1;stroke:none;stroke-width:0.264583px;stroke-linecap:butt;stroke-linejoin:miter;stroke-opacity:1"
       d="m 110.4569,51.331741 0.0113,1.635206 1.49057,-0.763517 z"
       id="path1134-2-9-9-0"
       sodipodi:nodetypes="cccc" />
    <path
       style="fill:#000000;fill-opacity:1;stroke:none;stroke-width:0.264583px;stroke-linecap:butt;stroke-linejoin:miter;stroke-opacity:1"
       d="m 110.59266,40.331496 0.0113,1.635206 1.49057,-0.763517 z"
       id="path1134-2-9-9-0-8"
       sodipodi:nodetypes="cccc" />
    <path
       style="fill:#000000;fill-opacity:1;stroke:none;stroke-width:0.264583px;stroke-linecap:butt;stroke-linejoin:miter;stroke-opacity:1"
       d="m 76.660804,49.252997 -1.63248,0.09522 0.83903,1.449414 z"
       id="path1134-2-9-9-0-1"
       sodipodi:nodetypes="cccc" />
    <rect
       style="fill:#d47b00;fill-opacity:1;stroke:none;stroke-width:0.365002;stroke-miterlimit:4;stroke-dasharray:none"
       id="rect833-3-5"
       width="31.518456"
       height="9.4459267"
       x="13.177874"
       y="59.390205" />
    <text
       xml:space="preserve"
       style="font-style:normal;font-variant:normal;font-weight:normal;font-stretch:normal;font-size:3.52777778px;line-height:1.25;font-family:'Droid Serif';-inkscape-font-specification:'Droid Serif';text-align:center;text-anchor:middle;fill:#ffffff;fill-opacity:1;stroke:none;stroke-width:0.264584;"
       x="29.026419"
       y="65.459763"
       id="text837-6-3"
       transform="scale(0.99967491,1.0003252)"><tspan
         sodipodi:role="line"
         id="tspan835-7-5"
         x="29.026419"
         y="65.459763"
         style="font-style:normal;font-variant:normal;font-weight:normal;font-stretch:normal;font-family:'Droid Serif';-inkscape-font-specification:'Droid Serif';text-align:center;text-anchor:middle;fill:#ffffff;fill-opacity:1;stroke-width:0.264584;font-size:3.52777778px;">targets</tspan></text>
  </g>
</svg>
